dump.vcd
$date
	Wed Nov 13 15:30:14 2024
$end

$version
	Synopsys VCS version U-2023.03-SP2_Full64
$end

$timescale
	1ns
$end

$comment Csum: 1 564d00bb1ff34719 $end


$scope module top $end
$var reg 1 ! clk $end
$var reg 1 " reset $end

$scope module i_inf $end
$var reg 1 # clk $end
$var reg 1 $ reset $end
$var reg 4 % fr_byte_position [3:0] $end
$var reg 1 & frame_detect $end
$var reg 8 ' rx_data [7:0] $end
$upscope $end


$scope module a1 $end
$var reg 2 ( legal_frame_counter [1:0] $end
$var reg 6 ) na_byte_counter [5:0] $end
$var reg 8 * header_lsb_samp [7:0] $end
$var reg 1 + fr_byte_position_rst $end
$var reg 1 , na_byte_count_inc $end
$var reg 1 - na_byte_count_rst $end
$var reg 1 . legal_frame_counter_rst $end
$var reg 1 / legal_frame_counter_inc $end
$var reg 2 0 current_state [1:0] $end
$var reg 2 1 next_state [1:0] $end
$var wire 1 2 header_msb_valid $end
$var wire 1 3 header_lsb_valid $end
$var wire 8 4 expected_header_msb [7:0] $end
$upscope $end

$upscope $end

$enddefinitions $end

#0
$dumpvars
1+
03
12
0/
1.
1,
0-
0!
1"
b00 0
b00000000 *
b00 (
b000000 )
b00 1
bxxxxxxxx 4
b00000000 '
b0000 %
0#
1$
0&
$end
b00000000 4
#5
1!
1#
#10
0!
0#
#15
0"
0$
1!
1#
b000001 )
#20
0!
0#
#25
1!
1#
b000010 )
#30
0!
0#
b10010100 '
02
#35
1!
1#
b000011 )
#40
0!
0#
b01010110 '
#45
1!
1#
b000100 )
#50
0!
0#
b11110000 '
#55
1!
1#
b000101 )
#60
0!
0#
b00110100 '
#65
1!
1#
b000110 )
#70
0!
0#
b10111011 '
#75
1!
1#
b000111 )
#80
0!
0#
b00001010 '
#85
1!
1#
b001000 )
#90
0!
0#
b00011011 '
#95
1!
1#
b001001 )
#100
0!
0#
b11111011 '
#105
1!
1#
b001010 )
#110
0!
0#
b00101010 '
#115
1!
1#
b001011 )
#120
0!
0#
b10001011 '
#125
1!
1#
b001100 )
#130
0!
0#
b10001100 '
#135
1!
1#
b001101 )
#140
0!
0#
b00001010 '
#145
1!
1#
b001110 )
#150
0!
0#
b00100001 '
#155
1!
1#
b001111 )
#160
0!
0#
b00001001 '
#165
1!
1#
b010000 )
#170
0!
0#
b00100001 '
#175
1!
1#
b010001 )
#180
0!
0#
b10000110 '
#185
1!
1#
b010010 )
#190
0!
0#
b00001111 '
#195
1!
1#
b010011 )
#200
0!
0#
b00010111 '
#205
1!
1#
b010100 )
#210
0!
0#
b00001100 '
#215
1!
1#
b010101 )
#220
0!
0#
b01100001 '
#225
1!
1#
b010110 )
#230
0!
0#
b11100111 '
#235
1!
1#
b010111 )
#240
0!
0#
b10001111 '
#245
1!
1#
b011000 )
#250
0!
0#
b01000001 '
#255
1!
1#
b011001 )
#260
0!
0#
b11010001 '
#265
1!
1#
b011010 )
#270
0!
0#
b00011000 '
#275
1!
1#
b011011 )
#280
0!
0#
b11101111 '
#285
1!
1#
b011100 )
#290
0!
0#
b10100100 '
#295
1!
1#
b011101 )
#300
0!
0#
b00110111 '
#305
1!
1#
b011110 )
#310
0!
0#
b10001100 '
#315
1!
1#
b011111 )
#320
0!
0#
b01111110 '
#325
1!
1#
b100000 )
#330
0!
0#
b01100011 '
#335
1!
1#
b100001 )
#340
0!
0#
b01111000 '
#345
1!
1#
b100010 )
#350
0!
0#
b10011001 '
#355
1!
1#
b100011 )
#360
0!
0#
b11100101 '
#365
1!
1#
b100100 )
#370
0!
0#
b11001011 '
#375
1!
1#
b100101 )
#380
0!
0#
b01111001 '
#385
1!
1#
b100110 )
#390
0!
0#
b00110101 '
#395
1!
1#
b100111 )
#400
0!
0#
b11001010 '
#405
1!
1#
b101000 )
#410
0!
0#
b10110010 '
#415
1!
1#
b101001 )
#420
0!
0#
b10101100 '
#425
1!
1#
b101010 )
#430
0!
0#
b00011001 '
#435
1!
1#
b101011 )
#440
0!
0#
b01101010 '
#445
1!
1#
b101100 )
#450
0!
0#
b10110011 '
#455
1!
1#
b101101 )
#460
0!
0#
b10111011 '
#465
1!
1#
b101110 )
#470
0!
0#
b10000101 '
#475
1!
1#
b101111 )
#480
0!
0#
b00000000 '
12
#485
1!
1#
b110000 )
#490
0!
0#
b01010101 '
13
0.
b01 1
02
#495
1!
1#
b01 0
b01010101 *
b10111010 4
b110001 )
0+
1.
b00 1
#500
0!
0#
b10111010 '
03
12
0,
0.
1/
b10 1
#505
1!
1#
b10 0
b0001 %
b01 (
0/
b11 1
#510
0!
0#
b00000111 '
02
#515
1!
1#
b11 0
b0010 %
#520
0!
0#
b11110111 '
#525
1!
1#
b0011 %
#530
0!
0#
b10111111 '
#535
1!
1#
b0100 %
#540
0!
0#
b00100010 '
#545
1!
1#
b0101 %
#550
0!
0#
b01111110 '
#555
1!
1#
b0110 %
#560
0!
0#
b10100000 '
#565
1!
1#
b0111 %
#570
0!
0#
b11100011 '
#575
1!
1#
b1000 %
#580
0!
0#
b01010100 '
#585
1!
1#
b1001 %
#590
0!
0#
b00010010 '
#595
1!
1#
b1010 %
1-
b00 1
#600
0!
0#
b00000000 '
#605
1!
1#
b00 0
b1011 %
b000000 )
1+
1,
0-
1.
#610
0!
0#
b01000010 '
#615
1!
1#
b0000 %
b00 (
b000001 )
#620
0!
0#
b01100001 '
#625
1!
1#
b000010 )
#630
0!
0#
b10111001 '
#635
1!
1#
b000011 )
#640
0!
0#
b10111111 '
#645
1!
1#
b000100 )
#650
0!
0#
b01110101 '
#655
1!
1#
b000101 )
#660
0!
0#
#665
1!
1#
b000110 )
#670
0!
0#
b00000000 '
#675
1!
1#
b000111 )
#680
0!
0#
b01010101 '
13
0.
b01 1
#685
1!
1#
b01 0
b001000 )
0+
1.
b00 1
#690
0!
0#
b10111010 '
03
12
0,
0.
1/
b10 1
#695
1!
1#
b10 0
b0001 %
b01 (
0/
b11 1
#700
0!
0#
b01111110 '
02
#705
1!
1#
b11 0
b0010 %
#710
0!
0#
b10010110 '
#715
1!
1#
b0011 %
#720
0!
0#
b11001101 '
#725
1!
1#
b0100 %
#730
0!
0#
b11010111 '
#735
1!
1#
b0101 %
#740
0!
0#
b01011110 '
#745
1!
1#
b0110 %
#750
0!
0#
b00110011 '
#755
1!
1#
b0111 %
#760
0!
0#
b11011000 '
#765
1!
1#
b1000 %
#770
0!
0#
b11111010 '
#775
1!
1#
b1001 %
#780
0!
0#
b00101110 '
#785
1!
1#
b1010 %
1-
b00 1
#790
0!
0#
b00000000 '
#795
1!
1#
b00 0
b1011 %
b000000 )
1+
1,
0-
1.
#800
0!
0#
b10101010 '
13
0.
b01 1
#805
1!
1#
b01 0
b10101010 *
b10101111 4
b0000 %
b000001 )
0+
1.
b00 1
#810
0!
0#
b10101111 '
03
12
0,
0.
1/
b10 1
#815
1!
1#
b10 0
b0001 %
b10 (
0/
b11 1
#820
0!
0#
b01101100 '
02
#825
1!
1#
b11 0
b0010 %
#830
0!
0#
b01001001 '
#835
1!
1#
b0011 %
#840
0!
0#
b10101101 '
#845
1!
1#
b0100 %
#850
0!
0#
b10001010 '
#855
1!
1#
b0101 %
#860
0!
0#
b10010111 '
#865
1!
1#
b0110 %
#870
0!
0#
b00110110 '
#875
1!
1#
b0111 %
#880
0!
0#
b11100101 '
#885
1!
1#
b1000 %
#890
0!
0#
b01001100 '
#895
1!
1#
b1001 %
#900
0!
0#
b11001111 '
#905
1!
1#
b1010 %
1-
b00 1
#910
0!
0#
b00000000 '
#915
1!
1#
b00 0
b1011 %
b000000 )
1+
1,
0-
1.
#920
0!
0#
b01010101 '
13
0.
b01 1
#925
1!
1#
b01 0
b01010101 *
b10111010 4
b0000 %
b000001 )
0+
1.
b00 1
#930
0!
0#
b10111010 '
03
12
0,
0.
1/
b10 1
#935
1!
1#
b10 0
b0001 %
b11 (
0/
b11 1
#940
0!
0#
b10011011 '
02
#945
1!
1#
b11 0
1&
b0010 %
#950
0!
0#
b00110000 '
#955
1!
1#
b0011 %
#960
0!
0#
b11100010 '
#965
1!
1#
b0100 %
#970
0!
0#
b10000110 '
#975
1!
1#
b0101 %
#980
0!
0#
b00111111 '
#985
1!
1#
b0110 %
#990
0!
0#
b00101000 '
#995
1!
1#
b0111 %
#1000
0!
0#
b01100110 '
#1005
1!
1#
b1000 %
#1010
0!
0#
b00101000 '
#1015
1!
1#
b1001 %
